src/dump.vcd
$date
	Sun Dec  7 23:49:26 2025
$end
$version
	QuestaSim Version 10.6c
$end
$timescale
	1ns
$end

$scope module uvm_root $end
$upscope $end

$scope module top $end
$var reg 1 ! PCLK $end

$scope module u_apb_master $end
$var parameter 32 " ADDR_WIDTH $end
$var parameter 32 # DATA_WIDTH $end
$var parameter 2 $ IDLE $end
$var parameter 2 % SETUP $end
$var parameter 2 & ACCESS $end
$var wire 1 ' PCLK $end
$var wire 1 ( PRESETn $end
$var reg 8 ) PADDR [7:0] $end
$var reg 1 * PSEL $end
$var reg 1 + PENABLE $end
$var reg 1 , PWRITE $end
$var reg 32 - PWDATA [31:0] $end
$var reg 4 . PSTRB [3:0] $end
$var wire 1 / PRDATA [31] $end
$var wire 1 0 PRDATA [30] $end
$var wire 1 1 PRDATA [29] $end
$var wire 1 2 PRDATA [28] $end
$var wire 1 3 PRDATA [27] $end
$var wire 1 4 PRDATA [26] $end
$var wire 1 5 PRDATA [25] $end
$var wire 1 6 PRDATA [24] $end
$var wire 1 7 PRDATA [23] $end
$var wire 1 8 PRDATA [22] $end
$var wire 1 9 PRDATA [21] $end
$var wire 1 : PRDATA [20] $end
$var wire 1 ; PRDATA [19] $end
$var wire 1 < PRDATA [18] $end
$var wire 1 = PRDATA [17] $end
$var wire 1 > PRDATA [16] $end
$var wire 1 ? PRDATA [15] $end
$var wire 1 @ PRDATA [14] $end
$var wire 1 A PRDATA [13] $end
$var wire 1 B PRDATA [12] $end
$var wire 1 C PRDATA [11] $end
$var wire 1 D PRDATA [10] $end
$var wire 1 E PRDATA [9] $end
$var wire 1 F PRDATA [8] $end
$var wire 1 G PRDATA [7] $end
$var wire 1 H PRDATA [6] $end
$var wire 1 I PRDATA [5] $end
$var wire 1 J PRDATA [4] $end
$var wire 1 K PRDATA [3] $end
$var wire 1 L PRDATA [2] $end
$var wire 1 M PRDATA [1] $end
$var wire 1 N PRDATA [0] $end
$var wire 1 O PREADY $end
$var wire 1 P PSLVERR $end
$var wire 1 Q transfer $end
$var wire 1 R write_read $end
$var wire 1 S addr_in [7] $end
$var wire 1 T addr_in [6] $end
$var wire 1 U addr_in [5] $end
$var wire 1 V addr_in [4] $end
$var wire 1 W addr_in [3] $end
$var wire 1 X addr_in [2] $end
$var wire 1 Y addr_in [1] $end
$var wire 1 Z addr_in [0] $end
$var wire 1 [ wdata_in [31] $end
$var wire 1 \ wdata_in [30] $end
$var wire 1 ] wdata_in [29] $end
$var wire 1 ^ wdata_in [28] $end
$var wire 1 _ wdata_in [27] $end
$var wire 1 ` wdata_in [26] $end
$var wire 1 a wdata_in [25] $end
$var wire 1 b wdata_in [24] $end
$var wire 1 c wdata_in [23] $end
$var wire 1 d wdata_in [22] $end
$var wire 1 e wdata_in [21] $end
$var wire 1 f wdata_in [20] $end
$var wire 1 g wdata_in [19] $end
$var wire 1 h wdata_in [18] $end
$var wire 1 i wdata_in [17] $end
$var wire 1 j wdata_in [16] $end
$var wire 1 k wdata_in [15] $end
$var wire 1 l wdata_in [14] $end
$var wire 1 m wdata_in [13] $end
$var wire 1 n wdata_in [12] $end
$var wire 1 o wdata_in [11] $end
$var wire 1 p wdata_in [10] $end
$var wire 1 q wdata_in [9] $end
$var wire 1 r wdata_in [8] $end
$var wire 1 s wdata_in [7] $end
$var wire 1 t wdata_in [6] $end
$var wire 1 u wdata_in [5] $end
$var wire 1 v wdata_in [4] $end
$var wire 1 w wdata_in [3] $end
$var wire 1 x wdata_in [2] $end
$var wire 1 y wdata_in [1] $end
$var wire 1 z wdata_in [0] $end
$var wire 1 { strb_in [3] $end
$var wire 1 | strb_in [2] $end
$var wire 1 } strb_in [1] $end
$var wire 1 ~ strb_in [0] $end
$var reg 32 !! rdata_out [31:0] $end
$var reg 1 "! transfer_done $end
$var reg 1 #! error $end
$var reg 2 $! state [1:0] $end
$var reg 2 %! next_state [1:0] $end
$var reg 8 &! addr_reg [7:0] $end
$var reg 32 '! wdata_reg [31:0] $end
$var reg 4 (! strb_reg [3:0] $end
$var reg 1 )! write_read_reg $end
$upscope $end
$upscope $end

$scope begin uvm_pkg $end
$var parameter 32 *! UVM_HDL_MAX_WIDTH $end
$var parameter 32 +! UVM_STREAMBITS $end
$var parameter 32 ,! UVM_RADIX $end
$var parameter 32 -! UVM_MACRO_NUMFLAGS $end
$var parameter 32 .! UVM_DEFAULT $end
$var parameter 32 /! UVM_ALL_ON $end
$var parameter 32 0! UVM_FLAGS_ON $end
$var parameter 32 1! UVM_FLAGS_OFF $end
$var parameter 32 2! UVM_COPY $end
$var parameter 32 3! UVM_NOCOPY $end
$var parameter 32 4! UVM_COMPARE $end
$var parameter 32 5! UVM_NOCOMPARE $end
$var parameter 32 6! UVM_PRINT $end
$var parameter 32 7! UVM_NOPRINT $end
$var parameter 32 8! UVM_RECORD $end
$var parameter 32 9! UVM_NORECORD $end
$var parameter 32 :! UVM_PACK $end
$var parameter 32 ;! UVM_NOPACK $end
$var parameter 32 <! UVM_PHYSICAL $end
$var parameter 32 =! UVM_ABSTRACT $end
$var parameter 32 >! UVM_READONLY $end
$var parameter 32 ?! UVM_NODEFPRINT $end
$var parameter 32 @! UVM_MACRO_EXTRAS $end
$var parameter 32 A! UVM_FLAGS $end
$var parameter 32 B! UVM_UNPACK $end
$var parameter 32 C! UVM_CHECK_FIELDS $end
$var parameter 32 D! UVM_END_DATA_EXTRA $end
$var parameter 32 E! UVM_START_FUNCS $end
$var parameter 32 F! UVM_SET $end
$var parameter 32 G! UVM_SETINT $end
$var parameter 32 H! UVM_SETOBJ $end
$var parameter 32 I! UVM_SETSTR $end
$var parameter 32 J! UVM_END_FUNCS $end
$var parameter 32 K! UVM_STR_CRC_POLYNOMIAL $end
$var parameter 32 L! UVM_STDOUT $end
$var parameter 32 M! UVM_LINE_WIDTH $end
$var parameter 32 N! UVM_NUM_LINES $end
$var parameter 32 O! UVM_SMALL_STRING $end
$var parameter 32 P! UVM_LARGE_STRING $end
$var reg 1 Q! uvm_start_uvm_declarations $end
$var integer 32 R! uvm_global_random_seed $end
$var integer 32 S! UVM_UNBOUNDED_CONNECTIONS $end

$scope function uvm_hdl_check_path $end
$var integer 32 T! uvm_hdl_check_path $end
$upscope $end

$scope function uvm_hdl_deposit $end
$var integer 32 U! uvm_hdl_deposit $end
$var reg 1024 V! value [1023:0] $end
$upscope $end

$scope function uvm_hdl_force $end
$var integer 32 W! uvm_hdl_force $end
$var reg 1024 X! value [1023:0] $end
$upscope $end

$scope task uvm_hdl_force_time $end
$var reg 1024 Y! value [1023:0] $end
$var time 64 Z! force_time $end
$upscope $end

$scope function uvm_hdl_release_and_read $end
$var integer 32 [! uvm_hdl_release_and_read $end
$var reg 1024 \! value [1023:0] $end
$upscope $end

$scope function uvm_hdl_release $end
$var integer 32 ]! uvm_hdl_release $end
$upscope $end

$scope function uvm_hdl_read $end
$var integer 32 ^! uvm_hdl_read $end
$var reg 1024 _! value [1023:0] $end
$upscope $end

$scope function uvm_dpi_get_next_arg_c $end
$upscope $end

$scope function uvm_dpi_get_tool_name_c $end
$upscope $end

$scope function uvm_dpi_get_tool_version_c $end
$upscope $end

$scope function uvm_dpi_get_next_arg $end
$upscope $end

$scope function uvm_dpi_get_tool_name $end
$upscope $end

$scope function uvm_dpi_get_tool_version $end
$upscope $end

$scope function uvm_dpi_regcomp $end
$upscope $end

$scope function uvm_dpi_regexec $end
$var integer 32 `! uvm_dpi_regexec $end
$upscope $end

$scope function uvm_dpi_regfree $end
$upscope $end

$scope function uvm_re_match $end
$var integer 32 a! uvm_re_match $end
$upscope $end

$scope function uvm_dump_re_cache $end
$upscope $end

$scope function uvm_glob_to_re $end
$upscope $end

$scope function uvm_revision_string $end
$upscope $end

$scope function uvm_radix_to_string $end
$var integer 32 b! radix $end
$upscope $end

$scope function uvm_instance_scope $end
$var reg 8 c! c [7:0] $end
$var integer 32 d! pos $end
$upscope $end

$scope function uvm_oneway_hash $end
$var integer 32 e! uvm_oneway_hash $end
$var integer 32 f! seed $end
$var reg 1 g! msb $end
$var reg 8 h! current_byte [7:0] $end
$var reg 32 i! crc1 [31:0] $end
$upscope $end

$scope function uvm_create_random_seed $end
$var integer 32 j! uvm_create_random_seed $end
$upscope $end

$scope function uvm_object_value_str $end
$upscope $end

$scope function uvm_leaf_scope $end
$var reg 8 k! scope_separator [7:0] $end
$var reg 8 l! bracket_match [7:0] $end
$var integer 32 m! pos $end
$var integer 32 n! bmatches $end
$upscope $end

$scope function uvm_vector_to_string $end
$var reg 4096 o! value [4095:0] $end
$var integer 32 p! size $end
$var integer 32 q! radix $end
$upscope $end

$scope function uvm_get_array_index_int $end
$var integer 32 r! uvm_get_array_index_int $end
$var reg 1 s! is_wildcard $end
$var integer 32 t! i $end
$upscope $end

$scope function uvm_get_array_index_string $end
$var reg 1 u! is_wildcard $end
$var integer 32 v! i $end
$upscope $end

$scope function uvm_is_array $end
$var reg 1 w! uvm_is_array $end
$upscope $end

$scope function uvm_has_wildcard $end
$upscope $end

$scope task run_test $end
$upscope $end

$scope function global_stop_request $end
$upscope $end

$scope function set_global_timeout $end
$var time 64 x! timeout $end
$var reg 1 y! overridable $end
$upscope $end

$scope function set_global_stop_timeout $end
$var time 64 z! timeout $end
$upscope $end

$scope function uvm_report_enabled $end
$var reg 1 {! uvm_report_enabled $end
$var integer 32 |! verbosity $end
$var reg 2 }! severity [1:0] $end
$upscope $end

$scope function uvm_report $end
$var reg 2 ~! severity [1:0] $end
$var integer 32 !" verbosity $end
$var integer 32 "" line $end
$upscope $end

$scope function uvm_report_info $end
$var integer 32 #" verbosity $end
$var integer 32 $" line $end
$upscope $end

$scope function uvm_report_warning $end
$var integer 32 %" verbosity $end
$var integer 32 &" line $end
$upscope $end

$scope function uvm_report_error $end
$var integer 32 '" verbosity $end
$var integer 32 (" line $end
$upscope $end

$scope function uvm_report_fatal $end
$var integer 32 )" verbosity $end
$var integer 32 *" line $end
$upscope $end

$scope function uvm_string_to_severity $end
$var reg 1 +" uvm_string_to_severity $end
$var reg 2 ," sev [1:0] $end
$upscope $end

$scope function uvm_string_to_action $end
$upscope $end

$scope function set_config_int $end
$var reg 4096 -" value [4095:0] $end
$upscope $end

$scope function set_config_object $end
$var reg 1 ." clone $end
$upscope $end

$scope function set_config_string $end
$upscope $end

$scope function uvm_is_match $end
$var reg 1 /" uvm_is_match $end
$upscope $end

$scope function uvm_string_to_bits $end
$var reg 115200 0" uvm_string_to_bits [115199:0] $end
$upscope $end

$scope function uvm_bits_to_string $end
$var reg 115200 1" str [115199:0] $end
$upscope $end

$scope task uvm_wait_for_nba_region $end
$var integer 32 2" nba $end
$var integer 32 3" next_nba $end
$upscope $end

$scope function uvm_split_string $end
$upscope $end

$scope function uvm_hdl_concat2string $end
$upscope $end
$upscope $end

$scope begin apb_pkg $end
$upscope $end

$scope begin std $end
$upscope $end

$scope begin questa_uvm_pkg $end
$upscope $end
$enddefinitions $end
#0
$dumpvars
0!
b0 )
0*
0+
0,
b0 -
b0 .
b0 !!
0"!
0#!
b0 $!
b0 %!
b0 &!
b0 '!
b0 (!
0)!
0u!
0w!
0+"
b0 ,"
bx 0"
bx 1"
bx V!
bx X!
bx Y!
bx \!
bx _!
1Q!
1g!
b1110001 h!
b11101101100010101010100101011 i!
bx o!
0s!
0y!
0{!
b0 }!
b0 ~!
bx -"
0."
0/"
b1000 "
b100000 #
b0 $
b1 %
b10 &
b10000000000 *!
b1000000000000 +!
b1111000000000000000000000000 ,!
b10001 -!
b10101010101 .!
b101010101 /!
b101010101 0!
b0 1!
b1 2!
b10 3!
b100 4!
b1000 5!
b10000 6!
b100000 7!
b1000000 8!
b10000000 9!
b100000000 :!
b1000000000 ;!
b10000000000000 <!
b100000000000000 =!
b1000000000000000 >!
b10000000000000000 ?!
b100000000000000000 @!
b100000000000000001 A!
b100000000000000010 B!
b100000000000000011 C!
b100000000000000100 D!
b100000000000000101 E!
b100000000000000110 F!
b100000000000000110 G!
b100000000000000111 H!
b100000000000001000 I!
b100000000000001000 J!
b100110000010001110110110110 K!
b1 L!
b1111000 M!
b1111000 N!
b1110111111 O!
b11100000111111111 P!
b0 b!
b0 k!
b0 l!
b0 m!
b0 n!
b0 v!
b0 T!
b0 U!
b0 W!
b0 [!
b0 ]!
b0 ^!
b1 `!
b0 a!
b1101001011000001111100000011110 R!
b101110 c!
b111 d!
b111110000010110100011100000000 e!
b1101001011000001111100000011110 f!
b1110111001111111100101110011111 j!
b0 p!
b0 q!
b0 r!
b0 t!
b111110100 |!
b0 !"
b0 ""
b11001000 #"
b11011001 $"
b0 %"
b0 &"
b0 '"
b0 ("
b0 )"
b0 *"
b100011 2"
b100011 3"
b11111111111111111111111111111111 S!
bx Z!
bx x!
bx z!
0'
0(
0N
0M
0L
0K
0J
0I
0H
0G
0F
0E
0D
0C
0B
0A
0@
0?
0>
0=
0<
0;
0:
09
08
07
06
05
04
03
02
01
00
0/
0O
0P
0Q
0R
0Z
0Y
0X
0W
0V
0U
0T
0S
0z
0y
0x
0w
0v
0u
0t
0s
0r
0q
0p
0o
0n
0m
0l
0k
0j
0i
0h
0g
0f
0e
0d
0c
0b
0a
0`
0_
0^
0]
0\
0[
0~
0}
0|
0{
$end
#5
1!
1'
#10
0!
0'
#15
1!
1'
#20
0!
0'
#25
1!
1'
b100100 3"
b100100 2"
#30
0!
0'
#35
1!
1'
b100101 3"
b111110000010110100011100000011 j!
b111110000010110100011100000110 j!
b100101 2"
1X
1V
1z
1v
1q
1p
1o
1n
1l
1k
1g
1f
1c
1b
1a
1_
1^
1\
1~
1}
1|
1{
1Q
1(
b1 %!
#40
0!
0'
#45
1!
1'
b1 $!
b10100 &!
b1011011100110001101111000010001 '!
b1111 (!
b10 %!
#50
0!
0'
#55
1!
1'
b10 $!
b10100 )
1*
1P
1N
1K
1J
1G
1E
1C
1B
1A
1?
1<
1:
19
18
10
1/
1O
b0 %!
#60
0!
0'
#65
1!
1'
b0 $!
1+
b11000000011101001011101010011001 !!
1"!
1#!
b1 %!
b100110 3"
b111110000010110100011100001010 j!
b111110000010110100011100001111 j!
b100110 2"
1Y
0X
1W
1S
1w
0v
1u
0p
0o
0n
1m
0k
1d
0c
0b
1`
0_
0^
1]
0\
0~
0|
0{
#70
0!
0'
#75
1!
1'
b1 $!
b10011010 &!
b100110010110000110001000101001 '!
b10 (!
0*
0+
0"!
0#!
b10 %!
0O
b1 %!
b10 %!
#80
0!
0'
#85
1!
1'
b10 $!
b10011010 )
1*
0P
0N
0J
1I
0G
1F
0A
1@
1>
1=
0<
1;
09
17
16
15
12
00
1O
b0 %!
#90
0!
0'
#95
1!
1'
b0 $!
1+
b10010011110110111101101100101000 !!
1"!
b1 %!
b100111 3"
b111110000010110100011100010101 j!
b111110000010110100011100011100 j!
b100111 2"
0Y
0W
0V
1U
1T
0S
0w
1v
0u
1s
0q
1p
1o
1n
0m
0l
1k
1j
1i
0g
1c
1_
1~
#100
0!
0'
#105
1!
1'
b1 $!
b1100000 &!
b101110110100111001110010010001 '!
b11 (!
0*
0+
0"!
b10 %!
1N
1M
0I
1H
0E
1D
0B
1A
0@
0>
0=
1<
0;
08
07
06
05
11
#110
0!
0'
#115
1!
1'
b10 $!
b1100000 )
1*
b0 %!
#120
0!
0'
#125
1!
1'
b0 $!
1+
b10110000000101001010110101001011 !!
1"!
b1 %!
b101000 3"
b111110000010110100011100100100 j!
b111110000010110100011100101101 j!
b101000 2"
1R
1Y
1W
0U
0T
1S
0z
1u
0s
1r
1q
0o
0n
0i
1b
0a
0`
1^
0]
1[
0}
#130
0!
0'
#135
1!
1'
b1 $!
b10001010 &!
b10011001110100011000011100110000 '!
b1 (!
1)!
0*
0+
0"!
b10 %!
1P
0N
0M
1L
0K
1I
1G
0D
0C
1B
1@
0?
1>
1=
19
18
17
15
13
#140
0!
0'
#145
1!
1'
b10 $!
b10001010 )
1*
1,
b10011001110100011000011100110000 -
b1 .
b0 %!
#150
0!
0'
#155
1!
1'
b0 $!
1+
1"!
1#!
b1 %!
b101001 3"
b111110000010110100011100110111 j!
b111110000010110100011101000010 j!
b101001 2"
1Z
1X
1V
0S
1z
0u
1t
0p
1o
1n
1m
1l
0k
0f
1e
0d
0c
1a
0_
1]
1\
1}
1|
#160
0!
0'
#165
1!
1'
b1 $!
b11111 &!
b11110011001000010111101101010001 '!
b111 (!
0*
0+
0"!
0#!
b10 %!
0L
0I
0G
1D
1C
0@
0>
0=
0<
09
08
07
16
05
03
02
#170
0!
0'
#175
1!
1'
b10 $!
b11111 )
1*
b11110011001000010111101101010001 -
b111 .
b0 %!
#180
0!
0'
#185
1!
1'
b0 $!
1+
1"!
1#!
b1 %!
b101010 3"
b111110000010110100011101001110 j!
b111110000010110100011101011011 j!
b101010 2"
0Y
0X
0W
0V
1T
1w
0v
1s
0q
0o
0m
0l
1k
1i
1h
1f
1`
0[
#190
0!
0'
#195
1!
1'
b1 $!
b1000001 &!
b1110111001101111001000111001001 '!
0*
0+
0"!
0#!
b10 %!
1N
1L
1J
0F
0C
0B
0A
1@
1?
0:
19
18
17
06
15
14
13
0/
#200
0!
0'
#205
1!
1'
b10 $!
b1000001 )
1*
b1110111001101111001000111001001 -
b0 %!
#210
0!
0'
#215
1!
1'
b0 $!
1+
1"!
1#!
b1 %!
b101011 3"
b111110000010110100011101101001 j!
b111110000010110100011101111000 j!
b101011 2"
1X
0T
0z
1y
1v
1q
1o
0n
1m
1l
0j
1g
0a
0`
1_
0^
0\
1{
#220
0!
0'
#225
1!
1'
b1 $!
b101 &!
b101001001111101110101111011010 '!
b1111 (!
0*
0+
0"!
0#!
b10 %!
0N
1K
0J
1G
1F
1E
1A
0@
1>
1;
1:
09
16
05
04
03
12
1/
#230
0!
0'
#235
1!
1'
b10 $!
b101 )
1*
b101001001111101110101111011010 -
b1111 .
b0 %!
#240
0!
0'
#245
1!
1'
b0 $!
1+
1"!
1#!
b1 %!
b101100 3"
b111110000010110100011110001000 j!
b111110000010110100011110011001 j!
b101100 2"
1Y
0X
1W
1S
1z
0w
1u
0t
0s
0r
0q
1p
0o
1n
0h
0g
1d
1a
1`
0_
1^
1\
0}
#250
0!
0'
#255
1!
1'
b1 $!
b10001011 &!
b1110111011100101111010000110011 '!
b1101 (!
0*
0+
0"!
0#!
b10 %!
0O
b1 %!
b10 %!
#260
0!
0'
#265
1!
1'
b10 $!
b10001011 )
1*
b1110111011100101111010000110011 -
b1101 .
0P
0L
0K
1J
0G
0F
0E
1C
0A
0?
0>
1<
0;
0:
19
07
06
02
0/
1O
b0 %!
#270
0!
0'
#275
1!
1'
b0 $!
1+
1"!
b1 %!
b101101 3"
b111110000010110100011110101011 j!
b111110000010110100011110111110 j!
b101101 2"
1X
0W
1T
0z
0v
0u
1t
1s
1r
0n
0k
0f
0d
1c
0a
1_
0^
#280
0!
0'
#285
1!
1'
b1 $!
b11000111 &!
b1101101101000100110010111000010 '!
0*
0+
0"!
b10 %!
0O
b1 %!
b10 %!
#290
0!
0'
#295
1!
1'
b10 $!
b11000111 )
1*
b1101101101000100110010111000010 -
1P
1N
1M
0J
0H
1G
0C
1:
08
16
14
13
1/
1O
b0 %!
#300
0!
0'
#305
1!
1'
b0 $!
1+
1"!
1#!
b1 %!
b101110 3"
b111110000010110100011111010010 j!
b111110000010110100011111100111 j!
b101110 2"
0R
0Z
0Y
0X
1V
1U
0S
1z
0y
1u
0s
0r
1q
1o
0l
1h
1g
0e
0b
0`
1^
1[
#310
0!
0'
#315
1!
1'
b1 $!
b1110000 &!
b11111000100011100010111001100001 '!
0)!
0*
0+
0"!
0#!
b10 %!
0O
b1 %!
b10 %!
#320
0!
0'
#325
1!
1'
b10 $!
b1110000 )
1*
0,
b0 -
b0 .
#330
0!
0'
#335
1!
1'
1+
#340
0!
0'
#345
1!
1'
#350
0!
0'
#355
1!
1'
#360
0!
0'
#365
1!
1'
#370
0!
0'
#375
1!
1'
0P
1L
1K
1I
1H
1F
1E
0D
1C
1B
1A
1?
1>
1=
0:
18
15
04
03
01
10
1O
b0 %!
#380
0!
0'
#385
1!
1'
b0 $!
1"!
b11000011011001111011101111101111 !!
b1 %!
b101111 3"
b111110000010110100011111111101 j!
b111110000010110100100000010100 j!
b101111 2"
1Z
1Y
1X
1W
0T
0z
1w
1v
0u
0t
0q
0p
1l
1j
0i
1f
1e
1d
1b
1a
0_
0~
0{
#390
0!
0'
#395
1!
1'
b1 $!
b111111 &!
b11110011111111010110100000011000 '!
b100 (!
0*
0+
0"!
b10 %!
0O
b1 %!
b10 %!
#400
0!
0'
#405
1!
1'
b10 $!
b111111 )
1*
#410
0!
0'
#415
1!
1'
1+
0N
0M
0F
0E
0C
0B
0A
0>
0=
0<
1;
08
05
13
12
11
00
1O
b0 %!
#420
0!
0'
#425
1!
1'
b0 $!
1"!
b10111001001010001000000011101100 !!
b1 %!
b110000 3"
b111110000010110100100000101100 j!
b111110000010110100100001000101 j!
b110000 2"
1R
0Y
0U
1T
1z
1x
0v
1u
1t
1s
1p
0o
0l
1k
0j
1i
0g
0e
0c
0\
#430
0!
0'
#435
1!
1'
b1 $!
b1011101 &!
b10110011010101101010010011101101 '!
1)!
0*
0+
0"!
b10 %!
1N
1M
0I
0G
1E
1@
0?
1>
0;
1:
18
17
06
15
14
03
02
01
10
#440
0!
0'
#445
1!
1'
b10 $!
b1011101 )
1*
1,
b10110011010101101010010011101101 -
b100 .
b0 %!
#450
0!
0'
#455
1!
1'
b0 $!
1+
1"!
b1 %!
b110001 3"
b111110000010110100100001011111 j!
b111110000010110100100001111010 j!
b110001 2"
0W
1S
1y
0x
1v
1o
1n
0m
1l
1g
1c
0b
1`
1_
1\
1{
#460
0!
0'
#465
1!
1'
b1 $!
b11010101 &!
b11111110110111101101110011111011 '!
b1100 (!
0*
0+
0"!
b10 %!
1P
0K
1J
0H
1G
1F
0E
1D
1C
0@
1?
1=
1<
08
16
05
13
12
00
#470
0!
0'
#475
1!
1'
b10 $!
b11010101 )
1*
b11111110110111101101110011111011 -
b1100 .
b0 %!
#480
0!
0'
#485
1!
1'
b0 $!
1+
1"!
1#!
b1 %!
b110010 3"
b111110000010110100100010010110 j!
b111110000010110100100010110011 j!
b110010 2"
1Y
0X
1x
0v
0t
1r
1q
0p
0o
0n
1m
0l
1j
0i
1e
0d
0`
0_
0\
0[
0|
0{
#490
0!
0'
#495
1!
1'
b1 $!
b11010011 &!
b110010101111011010001110101111 '!
b0 (!
0*
0+
0"!
0#!
b10 %!
0P
0N
1K
1H
1E
0D
1A
1@
0?
0=
1;
11
#500
0!
0'
#505
1!
1'
b10 $!
b11010011 )
1*
b110010101111011010001110101111 -
b0 .
b0 %!
#510
0!
0'
#515
1!
1'
b0 $!
1+
1"!
b1 %!
b110011 3"
b111110000010110100100011010001 j!
b111110000010110100100011110000 j!
b110011 2"
0R
0Z
1U
0S
0x
0w
1v
0s
0r
0q
0m
0j
0h
0e
1d
0c
0a
0^
1\
1}
1|
1{
#520
0!
0'
#525
1!
1'
b1 $!
b1110010 &!
b1100000010110001000000000110011 '!
b1110 (!
0)!
0*
0+
0"!
b10 %!
0O
b1 %!
b10 %!
#530
0!
0'
#535
1!
1'
b10 $!
b1110010 )
1*
0,
b0 -
#540
0!
0'
#545
1!
1'
1+
1P
0L
1I
0G
0F
1D
1B
09
18
03
02
01
1O
b0 %!
#550
0!
0'
#555
1!
1'
b0 $!
1"!
b10000101110111010111111001111010 !!
1#!
b1 %!
b110100 3"
b111110000010110100100100010000 j!
b111110000010110100100100110001 j!
b110100 2"
1R
1Z
0Y
1X
1W
0U
0T
1S
0y
1x
1w
0v
1r
1o
1l
1h
0f
1e
0d
1b
1a
1_
1~
#560
0!
0'
#565
1!
1'
b1 $!
b10011101 &!
b1101011001011001100100100101101 '!
b1111 (!
1)!
0*
0+
0"!
0#!
b10 %!
0M
1L
0K
0J
0I
0H
0E
0D
0@
1?
0>
1=
0;
19
06
0/
#570
0!
0'
#575
1!
1'
b10 $!
b10011101 )
1*
1,
b1101011001011001100100100101101 -
b1111 .
b0 %!
#580
0!
0'
#585
1!
1'
b0 $!
1+
1"!
1#!
b1 %!
b110101 3"
b111110000010110100100101010011 j!
b111110000010110100100101110110 j!
b110101 2"
1Y
0X
0W
1T
0z
0x
0u
1t
1p
1n
1m
1j
1i
0h
1f
0a
0_
1^
0~
0}
0|
#590
0!
0'
#595
1!
1'
b1 $!
b11010011 &!
b1110001001110111111110101001000 '!
b1000 (!
0*
0+
0"!
0#!
b10 %!
0P
1M
0L
1H
1G
1F
0C
0A
09
08
07
15
13
12
10
1/
#600
0!
0'
#605
1!
1'
b10 $!
b11010011 )
1*
b1110001001110111111110101001000 -
b1000 .
b0 %!
#610
0!
0'
#615
1!
1'
b0 $!
1+
1"!
b1 %!
b110110 3"
b111110000010110100100110011010 j!
b111110000010110100100110111111 j!
b110110 2"
0R
0Z
0Y
0V
0S
0w
1u
0t
1s
1q
0p
0o
0k
0g
1d
1c
1`
1_
0^
0]
1[
#620
0!
0'
#625
1!
1'
b1 $!
b1000000 &!
b11001101111100110111001110100000 '!
0)!
0*
0+
0"!
b10 %!
1K
1J
1I
0H
1D
1C
0?
1>
0=
0<
1;
0:
19
18
17
04
03
11
0/
#630
0!
0'
#635
1!
1'
b10 $!
b1000000 )
1*
0,
b0 -
b0 .
b0 %!
#640
0!
0'
#645
1!
1'
b0 $!
1+
b1110010111010010001110110111010 !!
1"!
b1 %!
b110111 3"
b111110000010110100100111100101 j!
b111110000010110100101000001100 j!
b110111 2"
1X
1W
1V
1U
1z
1y
1w
1v
0u
1t
0s
0r
0q
1o
0n
1k
0f
0e
0c
1a
0_
1^
1]
0\
0[
1~
1}
1|
0{
#650
0!
0'
#655
1!
1'
b1 $!
b1111100 &!
b110111010000111110100001011011 '!
b111 (!
0*
0+
0"!
b10 %!
0O
b1 %!
b10 %!
#660
0!
0'
#665
1!
1'
b10 $!
b1111100 )
1*
#670
0!
0'
#675
1!
1'
1+
1N
0M
0K
0J
0I
0G
0D
0C
1<
14
02
01
00
1O
b0 %!
#680
0!
0'
#685
1!
1'
b0 $!
1"!
b110111011010001000100000001 !!
b1 %!
b111000 3"
b111110000010110100101000110100 j!
b111110000010110100101001011101 j!
b111000 2"
1R
1Z
1Y
0U
0z
0y
0w
0v
1r
1p
0m
0j
1h
1e
1c
0b
0`
0^
1\
1[
0~
#690
0!
0'
#695
1!
1'
b1 $!
b1011111 &!
b11100010111001101100110101000000 '!
b110 (!
1)!
0*
0+
0"!
b10 %!
1P
0N
1K
1H
1G
1E
1C
0B
1A
1?
1=
0;
1:
08
16
05
04
13
12
#700
0!
0'
#705
1!
1'
b10 $!
b1011111 )
1*
1,
b11100010111001101100110101000000 -
b110 .
b0 %!
#710
0!
0'
#715
1!
1'
b0 $!
1+
1"!
1#!
b1 %!
b111001 3"
b111110000010110100101010000111 j!
b111110000010110100101010110010 j!
b111001 2"
0R
0X
0V
1U
1S
1x
1w
0t
1s
1q
0p
0o
1m
0k
0i
0h
1f
0e
0d
0c
0a
1_
0\
1~
0}
0|
1{
#720
0!
0'
#725
1!
1'
b1 $!
b11101011 &!
b10101000000100000110001110001100 '!
b1001 (!
0)!
0*
0+
0"!
0#!
b10 %!
1N
1M
1J
0H
0F
0E
1D
1B
0A
1@
0<
1;
0:
09
07
15
10
#730
0!
0'
#735
1!
1'
b10 $!
b11101011 )
1*
0,
b0 -
b0 .
b0 %!
#740
0!
0'
#745
1!
1'
b0 $!
1+
b1011011000010111101110010011011 !!
1"!
1#!
b1 %!
b111010 3"
b111110000010110100101011011110 j!
b111110000010110100101100001011 j!
b111010 2"
1R
0Z
0Y
0W
0T
0S
1y
1u
0r
1o
1h
0f
1c
1b
1a
0]
1\
0~
1|
#750
0!
0'
#755
1!
1'
b1 $!
b100000 &!
b11001011100001000110101010101110 '!
b1100 (!
1)!
0*
0+
0"!
0#!
b10 %!
0O
b1 %!
b10 %!
#760
0!
0'
#765
1!
1'
b10 $!
b100000 )
1*
1,
b11001011100001000110101010101110 -
b1100 .
#770
0!
0'
#775
1!
1'
1+
#780
0!
0'
#785
1!
1'
#790
0!
0'
#795
1!
1'
0N
1L
0J
0C
1A
0?
0=
1:
19
18
05
03
1O
b0 %!
#800
0!
0'
#805
1!
1'
b0 $!
1"!
1#!
b1 %!
b111011 3"
b111110000010110100101100111001 j!
b111110000010110100101101101000 j!
b111011 2"
1Y
1X
0U
1T
1v
0u
0s
0q
0o
0m
0l
1k
0h
1g
1f
1d
0a
1]
1~
#810
0!
0'
#815
1!
1'
b1 $!
b1000110 &!
b11101001110110001000000000011110 '!
b1101 (!
0*
0+
0"!
0#!
b10 %!
1J
1I
1H
0G
1E
0D
1C
0B
06
15
13
02
11
1/
#820
0!
0'
#825
1!
1'
b10 $!
b1000110 )
1*
b11101001110110001000000000011110 -
b1101 .
b0 %!
#830
0!
0'
#835
1!
1'
b0 $!
1+
1"!
1#!
b1 %!
b111100 3"
b111110000010110100101110011000 j!
b111110000010110100101111001001 j!
b111100 2"
0R
1Z
0Y
0X
0T
1z
0v
1t
1r
1p
1n
1m
1l
0k
1j
1i
0f
1e
0b
1a
1`
0_
0\
0[
0{
#840
0!
0'
#845
1!
1'
b1 $!
b1 &!
b100110111010110111010101001111 '!
b101 (!
0)!
0*
0+
0"!
0#!
b10 %!
0P
0M
0J
0H
1G
1D
0C
1B
0A
0>
1<
0:
08
17
05
14
01
0/
#850
0!
0'
#855
1!
1'
b10 $!
b1 )
1*
0,
b0 -
b0 .
b0 %!
#860
0!
0'
