src/dump.vcd
$date
	Mon Dec  8 09:44:05 2025
$end
$version
	QuestaSim Version 10.6c
$end
$timescale
	1ns
$end

$scope module uvm_root $end
$upscope $end

$scope module top $end
$var reg 1 ! PCLK $end

$scope module u_apb_master $end
$var parameter 32 " ADDR_WIDTH $end
$var parameter 32 # DATA_WIDTH $end
$var parameter 2 $ IDLE $end
$var parameter 2 % SETUP $end
$var parameter 2 & ACCESS $end
$var wire 1 ' PCLK $end
$var wire 1 ( PRESETn $end
$var reg 8 ) PADDR [7:0] $end
$var reg 1 * PSEL $end
$var reg 1 + PENABLE $end
$var reg 1 , PWRITE $end
$var reg 32 - PWDATA [31:0] $end
$var reg 4 . PSTRB [3:0] $end
$var wire 1 / PRDATA [31] $end
$var wire 1 0 PRDATA [30] $end
$var wire 1 1 PRDATA [29] $end
$var wire 1 2 PRDATA [28] $end
$var wire 1 3 PRDATA [27] $end
$var wire 1 4 PRDATA [26] $end
$var wire 1 5 PRDATA [25] $end
$var wire 1 6 PRDATA [24] $end
$var wire 1 7 PRDATA [23] $end
$var wire 1 8 PRDATA [22] $end
$var wire 1 9 PRDATA [21] $end
$var wire 1 : PRDATA [20] $end
$var wire 1 ; PRDATA [19] $end
$var wire 1 < PRDATA [18] $end
$var wire 1 = PRDATA [17] $end
$var wire 1 > PRDATA [16] $end
$var wire 1 ? PRDATA [15] $end
$var wire 1 @ PRDATA [14] $end
$var wire 1 A PRDATA [13] $end
$var wire 1 B PRDATA [12] $end
$var wire 1 C PRDATA [11] $end
$var wire 1 D PRDATA [10] $end
$var wire 1 E PRDATA [9] $end
$var wire 1 F PRDATA [8] $end
$var wire 1 G PRDATA [7] $end
$var wire 1 H PRDATA [6] $end
$var wire 1 I PRDATA [5] $end
$var wire 1 J PRDATA [4] $end
$var wire 1 K PRDATA [3] $end
$var wire 1 L PRDATA [2] $end
$var wire 1 M PRDATA [1] $end
$var wire 1 N PRDATA [0] $end
$var wire 1 O PREADY $end
$var wire 1 P PSLVERR $end
$var wire 1 Q transfer $end
$var wire 1 R write_read $end
$var wire 1 S addr_in [7] $end
$var wire 1 T addr_in [6] $end
$var wire 1 U addr_in [5] $end
$var wire 1 V addr_in [4] $end
$var wire 1 W addr_in [3] $end
$var wire 1 X addr_in [2] $end
$var wire 1 Y addr_in [1] $end
$var wire 1 Z addr_in [0] $end
$var wire 1 [ wdata_in [31] $end
$var wire 1 \ wdata_in [30] $end
$var wire 1 ] wdata_in [29] $end
$var wire 1 ^ wdata_in [28] $end
$var wire 1 _ wdata_in [27] $end
$var wire 1 ` wdata_in [26] $end
$var wire 1 a wdata_in [25] $end
$var wire 1 b wdata_in [24] $end
$var wire 1 c wdata_in [23] $end
$var wire 1 d wdata_in [22] $end
$var wire 1 e wdata_in [21] $end
$var wire 1 f wdata_in [20] $end
$var wire 1 g wdata_in [19] $end
$var wire 1 h wdata_in [18] $end
$var wire 1 i wdata_in [17] $end
$var wire 1 j wdata_in [16] $end
$var wire 1 k wdata_in [15] $end
$var wire 1 l wdata_in [14] $end
$var wire 1 m wdata_in [13] $end
$var wire 1 n wdata_in [12] $end
$var wire 1 o wdata_in [11] $end
$var wire 1 p wdata_in [10] $end
$var wire 1 q wdata_in [9] $end
$var wire 1 r wdata_in [8] $end
$var wire 1 s wdata_in [7] $end
$var wire 1 t wdata_in [6] $end
$var wire 1 u wdata_in [5] $end
$var wire 1 v wdata_in [4] $end
$var wire 1 w wdata_in [3] $end
$var wire 1 x wdata_in [2] $end
$var wire 1 y wdata_in [1] $end
$var wire 1 z wdata_in [0] $end
$var wire 1 { strb_in [3] $end
$var wire 1 | strb_in [2] $end
$var wire 1 } strb_in [1] $end
$var wire 1 ~ strb_in [0] $end
$var reg 32 !! rdata_out [31:0] $end
$var reg 1 "! transfer_done $end
$var reg 1 #! error $end
$var reg 2 $! state [1:0] $end
$var reg 2 %! next_state [1:0] $end
$var reg 8 &! addr_reg [7:0] $end
$var reg 32 '! wdata_reg [31:0] $end
$var reg 4 (! strb_reg [3:0] $end
$var reg 1 )! write_read_reg $end
$upscope $end
$upscope $end

$scope begin uvm_pkg $end
$var parameter 32 *! UVM_HDL_MAX_WIDTH $end
$var parameter 32 +! UVM_STREAMBITS $end
$var parameter 32 ,! UVM_RADIX $end
$var parameter 32 -! UVM_MACRO_NUMFLAGS $end
$var parameter 32 .! UVM_DEFAULT $end
$var parameter 32 /! UVM_ALL_ON $end
$var parameter 32 0! UVM_FLAGS_ON $end
$var parameter 32 1! UVM_FLAGS_OFF $end
$var parameter 32 2! UVM_COPY $end
$var parameter 32 3! UVM_NOCOPY $end
$var parameter 32 4! UVM_COMPARE $end
$var parameter 32 5! UVM_NOCOMPARE $end
$var parameter 32 6! UVM_PRINT $end
$var parameter 32 7! UVM_NOPRINT $end
$var parameter 32 8! UVM_RECORD $end
$var parameter 32 9! UVM_NORECORD $end
$var parameter 32 :! UVM_PACK $end
$var parameter 32 ;! UVM_NOPACK $end
$var parameter 32 <! UVM_PHYSICAL $end
$var parameter 32 =! UVM_ABSTRACT $end
$var parameter 32 >! UVM_READONLY $end
$var parameter 32 ?! UVM_NODEFPRINT $end
$var parameter 32 @! UVM_MACRO_EXTRAS $end
$var parameter 32 A! UVM_FLAGS $end
$var parameter 32 B! UVM_UNPACK $end
$var parameter 32 C! UVM_CHECK_FIELDS $end
$var parameter 32 D! UVM_END_DATA_EXTRA $end
$var parameter 32 E! UVM_START_FUNCS $end
$var parameter 32 F! UVM_SET $end
$var parameter 32 G! UVM_SETINT $end
$var parameter 32 H! UVM_SETOBJ $end
$var parameter 32 I! UVM_SETSTR $end
$var parameter 32 J! UVM_END_FUNCS $end
$var parameter 32 K! UVM_STR_CRC_POLYNOMIAL $end
$var parameter 32 L! UVM_STDOUT $end
$var parameter 32 M! UVM_LINE_WIDTH $end
$var parameter 32 N! UVM_NUM_LINES $end
$var parameter 32 O! UVM_SMALL_STRING $end
$var parameter 32 P! UVM_LARGE_STRING $end
$var reg 1 Q! uvm_start_uvm_declarations $end
$var integer 32 R! uvm_global_random_seed $end
$var integer 32 S! UVM_UNBOUNDED_CONNECTIONS $end

$scope function uvm_hdl_check_path $end
$var integer 32 T! uvm_hdl_check_path $end
$upscope $end

$scope function uvm_hdl_deposit $end
$var integer 32 U! uvm_hdl_deposit $end
$var reg 1024 V! value [1023:0] $end
$upscope $end

$scope function uvm_hdl_force $end
$var integer 32 W! uvm_hdl_force $end
$var reg 1024 X! value [1023:0] $end
$upscope $end

$scope task uvm_hdl_force_time $end
$var reg 1024 Y! value [1023:0] $end
$var time 64 Z! force_time $end
$upscope $end

$scope function uvm_hdl_release_and_read $end
$var integer 32 [! uvm_hdl_release_and_read $end
$var reg 1024 \! value [1023:0] $end
$upscope $end

$scope function uvm_hdl_release $end
$var integer 32 ]! uvm_hdl_release $end
$upscope $end

$scope function uvm_hdl_read $end
$var integer 32 ^! uvm_hdl_read $end
$var reg 1024 _! value [1023:0] $end
$upscope $end

$scope function uvm_dpi_get_next_arg_c $end
$upscope $end

$scope function uvm_dpi_get_tool_name_c $end
$upscope $end

$scope function uvm_dpi_get_tool_version_c $end
$upscope $end

$scope function uvm_dpi_get_next_arg $end
$upscope $end

$scope function uvm_dpi_get_tool_name $end
$upscope $end

$scope function uvm_dpi_get_tool_version $end
$upscope $end

$scope function uvm_dpi_regcomp $end
$upscope $end

$scope function uvm_dpi_regexec $end
$var integer 32 `! uvm_dpi_regexec $end
$upscope $end

$scope function uvm_dpi_regfree $end
$upscope $end

$scope function uvm_re_match $end
$var integer 32 a! uvm_re_match $end
$upscope $end

$scope function uvm_dump_re_cache $end
$upscope $end

$scope function uvm_glob_to_re $end
$upscope $end

$scope function uvm_revision_string $end
$upscope $end

$scope function uvm_radix_to_string $end
$var integer 32 b! radix $end
$upscope $end

$scope function uvm_instance_scope $end
$var reg 8 c! c [7:0] $end
$var integer 32 d! pos $end
$upscope $end

$scope function uvm_oneway_hash $end
$var integer 32 e! uvm_oneway_hash $end
$var integer 32 f! seed $end
$var reg 1 g! msb $end
$var reg 8 h! current_byte [7:0] $end
$var reg 32 i! crc1 [31:0] $end
$upscope $end

$scope function uvm_create_random_seed $end
$var integer 32 j! uvm_create_random_seed $end
$upscope $end

$scope function uvm_object_value_str $end
$upscope $end

$scope function uvm_leaf_scope $end
$var reg 8 k! scope_separator [7:0] $end
$var reg 8 l! bracket_match [7:0] $end
$var integer 32 m! pos $end
$var integer 32 n! bmatches $end
$upscope $end

$scope function uvm_vector_to_string $end
$var reg 4096 o! value [4095:0] $end
$var integer 32 p! size $end
$var integer 32 q! radix $end
$upscope $end

$scope function uvm_get_array_index_int $end
$var integer 32 r! uvm_get_array_index_int $end
$var reg 1 s! is_wildcard $end
$var integer 32 t! i $end
$upscope $end

$scope function uvm_get_array_index_string $end
$var reg 1 u! is_wildcard $end
$var integer 32 v! i $end
$upscope $end

$scope function uvm_is_array $end
$var reg 1 w! uvm_is_array $end
$upscope $end

$scope function uvm_has_wildcard $end
$upscope $end

$scope task run_test $end
$upscope $end

$scope function global_stop_request $end
$upscope $end

$scope function set_global_timeout $end
$var time 64 x! timeout $end
$var reg 1 y! overridable $end
$upscope $end

$scope function set_global_stop_timeout $end
$var time 64 z! timeout $end
$upscope $end

$scope function uvm_report_enabled $end
$var reg 1 {! uvm_report_enabled $end
$var integer 32 |! verbosity $end
$var reg 2 }! severity [1:0] $end
$upscope $end

$scope function uvm_report $end
$var reg 2 ~! severity [1:0] $end
$var integer 32 !" verbosity $end
$var integer 32 "" line $end
$upscope $end

$scope function uvm_report_info $end
$var integer 32 #" verbosity $end
$var integer 32 $" line $end
$upscope $end

$scope function uvm_report_warning $end
$var integer 32 %" verbosity $end
$var integer 32 &" line $end
$upscope $end

$scope function uvm_report_error $end
$var integer 32 '" verbosity $end
$var integer 32 (" line $end
$upscope $end

$scope function uvm_report_fatal $end
$var integer 32 )" verbosity $end
$var integer 32 *" line $end
$upscope $end

$scope function uvm_string_to_severity $end
$var reg 1 +" uvm_string_to_severity $end
$var reg 2 ," sev [1:0] $end
$upscope $end

$scope function uvm_string_to_action $end
$upscope $end

$scope function set_config_int $end
$var reg 4096 -" value [4095:0] $end
$upscope $end

$scope function set_config_object $end
$var reg 1 ." clone $end
$upscope $end

$scope function set_config_string $end
$upscope $end

$scope function uvm_is_match $end
$var reg 1 /" uvm_is_match $end
$upscope $end

$scope function uvm_string_to_bits $end
$var reg 115200 0" uvm_string_to_bits [115199:0] $end
$upscope $end

$scope function uvm_bits_to_string $end
$var reg 115200 1" str [115199:0] $end
$upscope $end

$scope task uvm_wait_for_nba_region $end
$var integer 32 2" nba $end
$var integer 32 3" next_nba $end
$upscope $end

$scope function uvm_split_string $end
$upscope $end

$scope function uvm_hdl_concat2string $end
$upscope $end
$upscope $end

$scope begin apb_pkg $end
$upscope $end

$scope begin std $end
$upscope $end

$scope begin questa_uvm_pkg $end
$upscope $end
$enddefinitions $end
#0
$dumpvars
0!
b0 )
0*
0+
0,
b0 -
b0 .
b0 !!
0"!
0#!
b0 $!
b0 %!
b0 &!
b0 '!
b0 (!
0)!
0u!
0w!
0+"
b0 ,"
bx 0"
bx 1"
bx V!
bx X!
bx Y!
bx \!
bx _!
1Q!
0g!
b1110001 h!
b11010100001000010011001110010010 i!
b1 o!
0s!
0y!
0{!
b0 }!
b0 ~!
bx -"
0."
0/"
b1000 "
b100000 #
b0 $
b1 %
b10 &
b10000000000 *!
b1000000000000 +!
b1111000000000000000000000000 ,!
b10001 -!
b10101010101 .!
b101010101 /!
b101010101 0!
b0 1!
b1 2!
b10 3!
b100 4!
b1000 5!
b10000 6!
b100000 7!
b1000000 8!
b10000000 9!
b100000000 :!
b1000000000 ;!
b10000000000000 <!
b100000000000000 =!
b1000000000000000 >!
b10000000000000000 ?!
b100000000000000000 @!
b100000000000000001 A!
b100000000000000010 B!
b100000000000000011 C!
b100000000000000100 D!
b100000000000000101 E!
b100000000000000110 F!
b100000000000000110 G!
b100000000000000111 H!
b100000000000001000 I!
b100000000000001000 J!
b100110000010001110110110110 K!
b1 L!
b1111000 M!
b1111000 N!
b1110111111 O!
b11100000111111111 P!
b0 b!
b101110 k!
b0 l!
b10100 m!
b11111111111111111111111111111111 n!
b0 v!
b0 T!
b0 U!
b0 W!
b0 [!
b0 ]!
b0 ^!
b1 `!
b0 a!
b1101001011000001111100000011110 R!
b101110 c!
b111 d!
b11010111001011011101011001001001 e!
b1101001011000001111100000011110 f!
b1110111001111111100101110011111 j!
b100000 p!
b10000000000000000000000000 q!
b0 r!
b0 t!
b111110100 |!
b0 !"
b0 ""
b11001000 #"
b11011001 $"
b0 %"
b0 &"
b0 '"
b0 ("
b0 )"
b0 *"
b100011 2"
b100011 3"
b11111111111111111111111111111111 S!
bx Z!
bx x!
bx z!
0'
0(
0N
0M
0L
0K
0J
0I
0H
0G
0F
0E
0D
0C
0B
0A
0@
0?
0>
0=
0<
0;
0:
09
08
07
06
05
04
03
02
01
00
0/
0O
0P
0Q
0R
0Z
0Y
0X
0W
0V
0U
0T
0S
0z
0y
0x
0w
0v
0u
0t
0s
0r
0q
0p
0o
0n
0m
0l
0k
0j
0i
0h
0g
0f
0e
0d
0c
0b
0a
0`
0_
0^
0]
0\
0[
0~
0}
0|
0{
$end
#5
1!
1'
#10
0!
0'
#15
1!
1'
#20
0!
0'
#25
1!
1'
b100100 3"
b100100 2"
#30
0!
0'
#35
1!
1'
b100101 3"
b11010111001011011101011001001100 j!
b11010111001011011101011001001111 j!
b100101 2"
1X
1V
1U
1z
1y
1u
1p
1o
1n
1k
1j
1g
1f
1e
1d
1c
1b
1_
1[
1~
1Q
1(
b1 %!
#40
0!
0'
#45
1!
1'
b1 $!
b110100 &!
b10001001111110011001110000100011 '!
b1 (!
b10 %!
#50
0!
0'
#55
1!
1'
b10 $!
b110100 )
1*
1N
1L
1D
1C
1B
1A
1@
1=
1;
19
17
14
12
11
1O
b0 %!
#60
0!
0'
#65
1!
1'
b0 $!
1+
b110100101010100111110000000101 !!
1"!
b1 %!
b100110 3"
b11010111001011011101011001010011 j!
b11010111001011011101011001011000 j!
b100110 2"
1R
0X
0y
1x
1v
0u
1t
1r
1q
0o
0n
1m
1l
0k
1i
0g
0e
0d
1`
1^
1]
1}
1{
#70
0!
0'
#75
1!
1'
b1 $!
b110000 &!
b10111101100100110110011101010101 '!
b1011 (!
1)!
0*
0+
0"!
b10 %!
0O
b1 %!
b10 %!
#80
0!
0'
#85
1!
1'
b10 $!
b110000 )
1*
1,
b10111101100100110110011101010101 -
b1011 .
0L
1F
1E
0D
0C
0A
0@
1?
0;
1:
09
18
07
13
01
1O
b0 %!
#90
0!
0'
#95
1!
1'
b0 $!
1+
1"!
b1 %!
b100111 3"
b11010111001011011101011001011110 j!
b11010111001011011101011001100101 j!
b100111 2"
0R
1Z
1W
0U
1S
0z
0x
1w
1s
0q
0p
1o
0l
1k
0j
1d
0c
0b
0`
0_
1\
0}
#100
0!
0'
#105
1!
1'
b1 $!
b10011001 &!
b11110000010100101010100111011000 '!
b1001 (!
0)!
0*
0+
0"!
b10 %!
1P
1M
1L
1H
1G
1D
1C
0B
1A
1@
0?
0=
1;
0:
08
17
04
1/
#110
0!
0'
#115
1!
1'
b10 $!
b10011001 )
1*
0,
b0 -
b0 .
b0 %!
#120
0!
0'
#125
1!
1'
b0 $!
1+
b10011000100010000110111111000111 !!
1"!
1#!
b1 %!
b101000 3"
b11010111001011011101011001101101 j!
b11010111001011011101011001110110 j!
b101000 2"
0Z
1Y
0W
1U
1T
1x
0t
0s
0r
1q
1p
1n
0f
1a
1`
1_
0]
0~
1}
0{
#130
0!
0'
#135
1!
1'
b1 $!
b11110010 &!
b11011110010000101011111000011100 '!
b10 (!
0*
0+
0"!
0#!
b10 %!
0O
b1 %!
b10 %!
#140
0!
0'
#145
1!
1'
b10 $!
b11110010 )
1*
0P
0M
0L
1J
1I
0G
0D
0C
0A
1>
1=
1<
18
07
16
02
11
10
0/
1O
b0 %!
#150
0!
0'
#155
1!
1'
b0 $!
1+
b1101001010011110100001101110001 !!
1"!
b1 %!
b101001 3"
b11010111001011011101011010000000 j!
b11010111001011011101011010001011 j!
b101001 2"
0Y
0V
0T
1y
0w
0v
1u
1t
1s
1r
0o
0m
1l
1h
1g
1e
0d
1c
0`
0^
0[
1|
#160
0!
0'
#165
1!
1'
b1 $!
b10100000 &!
b1001010101011101101011111100110 '!
b110 (!
0*
0+
0"!
b10 %!
1M
1L
1G
0F
0E
1D
1C
1B
0@
0=
0;
19
08
17
06
14
03
01
1/
#170
0!
0'
#175
1!
1'
b10 $!
b10100000 )
1*
b0 %!
#180
0!
0'
#185
1!
1'
b0 $!
1+
b11000100101001010001110011110111 !!
1"!
b1 %!
b101010 3"
b11010111001011011101011010010111 j!
b11010111001011011101011010100100 j!
b101010 2"
1R
1Z
1X
1W
1T
0S
1z
0x
1w
1v
0r
0p
1m
1j
0i
0e
0a
1`
1^
0\
1[
1~
0}
1{
#190
0!
0'
#195
1!
1'
b1 $!
b1101101 &!
b10011100100011011111001011111011 '!
b1101 (!
1)!
0*
0+
0"!
b10 %!
0J
0I
0H
1F
0D
0B
0>
1=
0<
1:
09
07
16
11
00
0/
#200
0!
0'
#205
1!
1'
b10 $!
b1101101 )
1*
1,
b10011100100011011111001011111011 -
b1101 .
b0 %!
#210
0!
0'
#215
1!
1'
b0 $!
1+
1"!
b1 %!
b101011 3"
b11010111001011011101011010110010 j!
b11010111001011011101011011000001 j!
b101011 2"
0R
0Z
0X
0W
0T
0y
1x
0t
0s
1p
1o
0m
0j
1i
0h
0g
1d
0c
1b
0_
0^
1\
0[
0{
#220
0!
0'
#225
1!
1'
b1 $!
b100000 &!
b1000101010000101101111000111101 '!
b101 (!
0)!
0*
0+
0"!
b10 %!
1P
0N
1K
1I
1H
0G
0F
1E
0C
1B
1?
1>
0=
1;
19
17
06
04
13
01
1/
#230
0!
0'
#235
1!
1'
b10 $!
b100000 )
1*
0,
b0 -
b0 .
b0 %!
#240
0!
0'
#245
1!
1'
b0 $!
1+
b10001000101110011001001001101110 !!
1"!
1#!
b1 %!
b101100 3"
b11010111001011011101011011010001 j!
b11010111001011011101011011100010 j!
b101100 2"
1R
1Z
1Y
1X
1V
0U
0z
1y
1t
0p
0o
0l
0k
1h
1g
0d
1c
1a
1^
0\
#250
0!
0'
#255
1!
1'
b1 $!
b10111 &!
b10111100011100001001001111110 '!
1)!
0*
0+
0"!
0#!
b10 %!
0O
b1 %!
b10 %!
#260
0!
0'
#265
1!
1'
b10 $!
b10111 )
1*
1,
b10111100011100001001001111110 -
b101 .
#270
0!
0'
#275
1!
1'
1+
0P
0I
0H
1D
0B
1A
1=
1<
0:
16
14
11
1O
b0 %!
#280
0!
0'
#285
1!
1'
b0 $!
1"!
b1 %!
b101101 3"
b11010111001011011101011011110100 j!
b11010111001011011101011100000111 j!
b101101 2"
1W
0V
1T
1S
0q
1o
0n
1m
1e
1d
0b
0`
1_
0^
1]
1\
1[
0~
0|
1{
#290
0!
0'
#295
1!
1'
b1 $!
b11001111 &!
b11101010111011100010100001111110 '!
b1000 (!
0*
0+
0"!
b10 %!
1N
1J
1F
0E
0D
1@
0>
0<
09
18
06
04
03
12
01
10
#300
0!
0'
#305
1!
1'
b10 $!
b11001111 )
1*
b11101010111011100010100001111110 -
b1000 .
b0 %!
#310
0!
0'
#315
1!
1'
b0 $!
1+
1"!
b1 %!
b101110 3"
b11010111001011011101011100011011 j!
b11010111001011011101011100110000 j!
b101110 2"
0R
0X
0T
0x
0u
0t
1q
1p
0o
1n
1l
1k
0h
0g
0d
0c
1b
0a
1`
0_
1^
0\
0[
1~
#320
0!
0'
#325
1!
1'
b1 $!
b10001011 &!
b110101001000101111011000011010 '!
b1001 (!
0)!
0*
0+
0"!
b10 %!
0O
b1 %!
b10 %!
#330
0!
0'
#335
1!
1'
b10 $!
b10001011 )
1*
0,
b0 -
b0 .
#340
0!
0'
#345
1!
1'
1+
#350
0!
0'
#355
1!
1'
0L
0J
1H
1E
1D
0A
0?
0=
1<
19
07
16
14
0/
1O
b0 %!
#360
0!
0'
#365
1!
1'
b0 $!
1"!
b1010101011011000100011101001011 !!
b1 %!
b101111 3"
b110000 3"
b110001 3"
b101111 2"
b110000 2"
b110001 2"
b110010 3"
b110011 3"
b110010 2"
b110011 2"
b1110111001111111100101110110001 j!
b11000010111001001100111000011101 j!
b1011110101101110000101101111110 j!
b10101001001010110110101011000000 j!
b1111000000110001000000101101000 j!
b10101011100000111100001110000010 j!
b1010001010100000001011010101101 j!
b10100110010011110110100000000101 j!
b10011111000011001110101000110100 j!
b10010001111010111101011011100011 j!
b101010001110010000110101111110 j!
b110011001010101100000111100110 j!
b1110011100011110101110011100011 j!
b100010101101111010101111000 j!
b1100000110111100110110100100100 j!
b1001101100110100101000111110011 j!
b10001110000001110111101001110110 j!
b1100001110010010000000010000110 j!
b10001110100101011010001001001100 j!
b11011001101110000001001101001011 j!
b1101100111101111011111101000011 j!
b11001110111100000001011110111000 j!
b1011101001000111110110010100101 j!
b101001111000000001011010101101 j!
b100111001011110000111001001111 j!
b10100110100011010000011001101110 j!
b101100011000111010100011001100 j!
b10001111111100001010100001001011 j!
b1000010000001001001011110010010 j!
b100010001001110001010000101100 j!
b111001101101011011111001011011 j!
b10101110111101100000001111101011 j!
b10111111110010101100011100000 j!
b10001011111110111010111101110100 j!
b10100010000110010000000100101001 j!
b10101111010011111001000011110111 j!
b1000101100100001101101011010101 j!
b10100110111001110000011110100111 j!
b11100111010110000010111010001110 j!
b10100010000010011100111101111010 j!
b111000011000110011100110101111 j!
b11011100000111001000010000111110 j!
b1110111001111111100101111000100 j!
b11000010111001001100111000110000 j!
b1011110101101110000101110010001 j!
b10101001001010110110101011010011 j!
b1111000000110001000000101111011 j!
b10101011100000111100001110010101 j!
b1010001010100000001011011000000 j!
b10100110010011110110100000011000 j!
b10011111000011001110101001000111 j!
b10010001111010111101011011110110 j!
b101010001110010000110110010001 j!
b110011001010101100000111111001 j!
b1110011100011110101110011110110 j!
b100010101101111010110001011 j!
b1100000110111100110110100110111 j!
b1001101100110100101001000000110 j!
b10001110000001110111101010001001 j!
b1100001110010010000000010011001 j!
b10001110100101011010001001011111 j!
b11011001101110000001001101011110 j!
b1101100111101111011111101010110 j!
b11001110111100000001011111001011 j!
b1011101001000111110110010111000 j!
b101001111000000001011011000000 j!
b100111001011110000111001100010 j!
b10100110100011010000011010000001 j!
b101100011000111010100011011111 j!
b10001111111100001010100001011110 j!
b1000010000001001001011110100101 j!
b100010001001110001010000111111 j!
b111001101101011011111001101110 j!
b10101110111101100000001111111110 j!
b10111111110010101100011110011 j!
b10001011111110111010111110000111 j!
b10100010000110010000000100111100 j!
b10101111010011111001000100001010 j!
b1000101100100001101101011101000 j!
b10100110111001110000011110111010 j!
b11100111010110000010111010100001 j!
b10100010000010011100111110001101 j!
b111000011000110011100111000010 j!
b11011100000111001000010001010001 j!
b1110111001111111100101111011000 j!
b11000010111001001100111001000100 j!
b1011110101101110000101110100101 j!
b10101001001010110110101011100111 j!
b1111000000110001000000110001111 j!
b10101011100000111100001110101001 j!
b1010001010100000001011011010100 j!
b10100110010011110110100000101100 j!
b10011111000011001110101001011011 j!
b10010001111010111101011100001010 j!
b101010001110010000110110100101 j!
b110011001010101100001000001101 j!
b1110011100011110101110100001010 j!
b100010101101111010110011111 j!
b1100000110111100110110101001011 j!
b1001101100110100101001000011010 j!
b10001110000001110111101010011101 j!
b1100001110010010000000010101101 j!
b10001110100101011010001001110011 j!
b11011001101110000001001101110010 j!
b1101100111101111011111101101010 j!
b11001110111100000001011111011111 j!
b1011101001000111110110011001100 j!
b101001111000000001011011010100 j!
b100111001011110000111001110110 j!
b10100110100011010000011010010101 j!
b101100011000111010100011110011 j!
b10001111111100001010100001110010 j!
b1000010000001001001011110111001 j!
b100010001001110001010001010011 j!
b111001101101011011111010000010 j!
b10101110111101100000010000010010 j!
b10111111110010101100100000111 j!
b10001011111110111010111110011011 j!
b10100010000110010000000101010000 j!
b10101111010011111001000100011110 j!
b1000101100100001101101011111100 j!
b10100110111001110000011111001110 j!
b11100111010110000010111010110101 j!
b10100010000010011100111110100001 j!
b111000011000110011100111010110 j!
b11011100000111001000010001100101 j!
b11011100000111001000010001111010 j!
b111000011000110011100111101011 j!
b10100010000010011100111110110110 j!
b11011001101110000001001110000111 j!
b11000010111001001100111001011001 j!
b1110111001111111100101111101101 j!
b1111000000110001000000110100100 j!
b1011110101101110000101110111010 j!
b10101001001010110110101011111100 j!
b10001110100101011010001010001000 j!
b10010001111010111101011100011111 j!
b10101011100000111100001110111110 j!
b1010001010100000001011011101001 j!
b10100110010011110110100001000001 j!
b10011111000011001110101001110000 j!
b101010001110010000110110111010 j!
b110011001010101100001000100010 j!
b1100001110010010000000011000010 j!
b1110011100011110101110100011111 j!
b100010101101111010110110100 j!
b1100000110111100110110101100000 j!
b1001101100110100101001000101111 j!
b10001110000001110111101010110010 j!
b1011101001000111110110011100001 j!
b11001110111100000001011111110100 j!
b1101100111101111011111101111111 j!
b10101111010011111001000100110011 j!
b1000010000001001001011111001110 j!
b101001111000000001011011101001 j!
b100111001011110000111010001011 j!
b10100110100011010000011010101010 j!
b101100011000111010100100001000 j!
b10001111111100001010100010000111 j!
b10100010000110010000000101100101 j!
b100010001001110001010001101000 j!
b111001101101011011111010010111 j!
b10101110111101100000010000100111 j!
b10111111110010101100100011100 j!
b10001011111110111010111110110000 j!
b11100111010110000010111011001010 j!
b1000101100100001101101100010001 j!
b10100110111001110000011111100011 j!
